Data for Preceptor's Primer for Bayesian Data Science • primer.data
…
primer.data provides the data used in Preceptor’s Primer for Bayesian Data Science and for the associated tutorials.

Installation

remotes::install_github("ppbds/primer.data")

Loading

After installing the package, it loads as any package should.

library(tidyverse) 
library(primer.data)

qscores
#> # A tibble: 748 × 9
#>    name        department number term  enrollment hours rating instructor female
#>    <chr>       <chr>      <chr>  <chr>      <int> <dbl>  <dbl> <chr>       <dbl>
#>  1 Introducti… AFRAMER    100Y   2019…         49   2.6    4.2 Jesse McC…      0
#>  2 American D… AFRAMER    123Z   2019…         49   3.6    4.4 Cornel We…      0
#>  3 Urban Ineq… AFRAMER    125X   2019…         40   5.2    4.5 Elizabeth…      1
#>  4 Richard Wr… AFRAMER    130X   2019…         23   7.2    4.4 Glenda Ca…      1
#>  5 19th centu… AFRAMER    131Y   2019…         20   3.5    4.9 Linda Cha…      1
#>  6 Social Rev… AFRAMER    199X   2019…         19   7.2    4.8 Alejandro…      0
#>  7 Martin Lut… AFRAMER    199Y   2019…         40   4.2    4.7 Brandon M…      0
#>  8 Elementary… AFRIKAAN   AB     2019…         22   2.9    4.9 John M Mu…      0
#>  9 Elementary… JAMAICAN   AB     2019…         18   1.5    4.9 John M Mu…      0
#> 10 Elementary… WSTAFRCN   AB     2019…         29   2.6    4   John M Mu…      0
#> # ℹ 738 more rows
…
