…
``` r
remotes::install_github("ppbds/primer.data")
```

## Loading

After installing the package, it loads as any package should.

``` r
library(tidyverse) 
library(primer.data)

qscores
#> # A tibble: 748 x 8
#>    name             department number term   enrollment hours rating instructor 
#>    <chr>            <chr>      <chr>  <chr>       <int> <dbl>  <dbl> <chr>      
#>  1 Introduction to… AFRAMER    100Y   2019-…         49   2.6    4.2 Jesse McCa…
#>  2 American Democr… AFRAMER    123Z   2019-…         49   3.6    4.4 Cornel West
#>  3 Urban Inequalit… AFRAMER    125X   2019-…         40   5.2    4.5 Elizabeth …
#>  4 Richard Wright   AFRAMER    130X   2019-…         23   7.2    4.4 Glenda Car…
#>  5 19th century Bl… AFRAMER    131Y   2019-…         20   3.5    4.9 Linda Chav…
#>  6 Social Revoluti… AFRAMER    199X   2019-…         19   7.2    4.8 Alejandro …
#>  7 Martin Luther K… AFRAMER    199Y   2019-…         40   4.2    4.7 Brandon Mi…
#>  8 Elementary Afri… AFRIKAAN   AB     2019-…         22   2.9    4.9 John M Mug…
#>  9 Elementary Jama… JAMAICAN   AB     2019-…         18   1.5    4.9 John M Mug…
#> 10 Elementary West… WSTAFRCN   AB     2019-…         29   2.6    4   John M Mug…
#> # … with 738 more rows
```
…
